{
  "project_info": {
    "project_number": "983778492264",
    "firebase_url": "https://cadastro-aluno-f1ef8.firebaseio.com",
    "project_id": "cadastro-aluno-f1ef8",
    "storage_bucket": "cadastro-aluno-f1ef8.appspot.com"
  },
  "client": [
    {
      "client_info": {
        "mobilesdk_app_id": "1:983778492264:android:d2ce616803c1ab7f59a0dd",
        "android_client_info": {
          "package_name": "br.com.aula12"
        }
      },
      "oauth_client": [
        {
          "client_id": "983778492264-h2jgsc0o6bvkvtthj6tdrq8bbvh364em.apps.googleusercontent.com",
          "client_type": 3
        }
      ],
      "api_key": [
        {
          "current_key": "AIzaSyBgL0chOLzE-NKBVhaRideCYQPVuGHBR_4"
        }
      ],
      "services": {
        "appinvite_service": {
          "other_platform_oauth_client": [
            {
              "client_id": "983778492264-h2jgsc0o6bvkvtthj6tdrq8bbvh364em.apps.googleusercontent.com",
              "client_type": 3
            }
          ]
        }
      }
    }
  ],
  "configuration_version": "1"
}